{
	"env": [
		{
			"HOUDINI_UI_ICON_PATH": "$SPACEPIPE_ROOT/icons"
		}
	],
    "path":
        [
            {"houdini_os == 'macos'": "$SPACEPIPE_ROOT"},
            {"houdini_os == 'windows'": "$SPACEPIPE_ROOT"},
            {"houdini_os == 'linux'": "$SPACEPIPE_ROOT"}
        ]
}